Categories:Internet
License:GPLv3
Web Site:http://davdroid.bitfire.at
Source Code:https://github.com/rfc2822/davdroid
Issue Tracker:https://github.com/rfc2822/davdroid/issues
Donate:http://davdroid.bitfire.at/donate
FlattrID:2100160
Bitcoin:1KSCy7RHztKuhW9fLLaUYqdwdC2iwbejZU

Auto Name:DAVdroid
Summary:Contacts and Calendar sync
Description:
DAVdroid is a CalDAV/CardDAV synchronisation adapter for Android 4+ devices.
Use it with your own server (like Radicale or DAViCal) or with a trusted
hoster to keep your contacts and events under your control. Integrates
natively in Android calendar/contact apps.

[https://github.com/rfc2822/davdroid/releases/ Changelog]
.

Repo Type:git
Repo:https://github.com/rfc2822/davdroid.git

Build:0.3.2-alpha,5
    commit=v0.3.2-alpha

Build:0.3.3-alpha,6
    commit=v0.3.3-alpha

Build:0.3.4-alpha,7
    commit=v0.3.4-alpha

Build:0.3.5-alpha,8
    commit=v0.3.5-alpha

Build:0.3.6-alpha,10
    commit=v0.3.6-alpha

Build:0.3.7-alpha,11
    commit=v0.3.7-alpha

Build:0.3.8-alpha,12
    commit=v0.3.8-alpha

Build:0.4-alpha,13
    commit=v0.4-alpha

Build:0.4.1-alpha,14
    commit=v0.4.1-alpha

Build:0.4.2-alpha,15
    commit=v0.4.2-alpha

Build:0.4.3-alpha,16
    commit=v0.4.3-alpha

Build:0.4.4-alpha,17
    commit=v0.4.4-alpha

Build:0.5-alpha,18
    commit=v0.5-alpha

Build:0.5.1-alpha,19
    commit=v0.5.1-alpha

Build:0.5.2-alpha,20
    commit=v0.5.2-alpha

Build:0.5.3-alpha,21
    commit=v0.5.3-alpha

Build:0.5.4-alpha,22
    commit=v0.5.4-alpha

Build:0.5.6-alpha,24
    commit=v0.5.6-alpha

Build:0.5.7-alpha,26
    commit=v0.5.7-alpha

Build:0.5.8,28
    commit=v0.5.8-alpha

Build:0.5.8.1,29
    commit=v0.5.8.1-alpha

Build:0.5.9,30
    commit=v0.5.9-alpha

Build:0.5.10,31
    commit=v0.5.10-alpha

Build:0.5.10.1,32
    commit=v0.5.10.1-alphav

Build:0.5.10.2,33
    commit=v0.5.10.2-alpha

Build:0.5.11,34
    commit=v0.5.11-alpha

Build:0.5.12-alpha,35
    commit=v0.5.12-alpha

Build:0.5.13-alpha,36
    commit=v0.5.13-alpha

Build:0.5.14-alpha,37
    commit=v0.5.14-alpha

Build:0.6,38
    commit=v0.6

Build:0.6.1,39
    commit=v0.6.1

Build:0.6.2,40
    commit=v0.6.2

Build:0.6.3,41
    commit=v0.6.3

Auto Update Mode:Version v%v
Update Check Mode:Tags
Current Version:0.6.3
Current Version Code:41

